"H4 402";"CGS-055"
"H4 404";"CGS-101"
"H4 405";"CGS-053"
"H4 406";"CGS-052"
"H4 407";"CGS-092"
"H4 408";"CGS-094"
"H4 409";"CGS-084"
"H4 412";"CGS-082"
"H4 413";"CGS-086"
"H4 414";"CGS-097"
"H4 415";"CGS-103"
"H4 416";"CGS-093"
"H4 417";"CGS-083"
"H4 418";"CGS-102"
"H4 420";"CGS-068"
"H4 525";"CGS-067"
"H4 529";"CGS-096"
"H4 534";"CGS-095"
"H4 542";"CGS-054"
"H4 546";"CGS-085"
"H4 547";"CGS-056"
"H4 549";"CGS-069"
"S2 206";"CGS-066"
"S2 207";"CGS-065"
"S2 208";"CGS-113"
"S2 209";"CGS-057"
"S2 210";"CGS-034"
"S2 211";"CGS-077"
"S2 212";"CGS-013"
"S2 215";"CGS-046"
"S2 216";"CGS-050"
"S2 217";"CGS-049"
"S2 218";"CGS-019"
"S2 219";"CGS-017"
"S2 220";"CGS-117"
"S2 221";"CGS-115"
"S2 222";"CGS-116"
"S2 223";"CGS-081"
"S2 224";"CGS-014"
"S2 225";"CGS-033"
"S2 226";"CGS-044"
"S2 227";"CGS-098"
"S2 228";"CGS-091"
"S2 229";"CGS-122"
"S2 230";"CGS-110"
"S2 231";"CGS-087"
"S2 232";"CGS-107"
"S3 306";"CGS-125"
"S3 307";"CGS-061"
"S3 308";"CGS-060"
"S3 309";"CGS-035"
"S3 310";"CGS-043"
"S3 311";"CGS-099"
"S3 312";"CGS-027"
"S3 315";"CGS-112"
"S3 316";"CGS-121"
"S3 317";"CGS-119"
"S3 318";"CGS-124"
"S3 319";"CGS-111"
"S3 320";"CGS-073"
"S3 321";"CGS-042"
"S3 322";"CGS-032"
"S3 323";"CGS-045"
"S3 324";"CGS-010"
"S3 325";"CGS-028"
"S3 326";"CGS-011"
"S3 327";"CGS-016"
"S3 328";"CGS-123"
"S3 329";"CGS-089"
"S3 330";"CGS-120"
"S3 331";"CGS-108"
"S3 332";"CGS-090"
"S4 406";"CGS-002"
"S4 407";"CGS-005"
"S4 408";"CGS-004"
"S4 409";"CGS-006"
"S4 410";"CGS-036"
"S4 411";"CGS-100"
"S4 412";"CGS-058"
"S4 415";"CGS-003"
"S4 416";"CGS-008"
"S4 417";"CGS-012"
"S4 418";"CGS-059"
"S4 419";"CGS-088"
"S4 420";"CGS-078"
"S4 421";"CGS-031"
"S4 422";"CGS-080"
"S4 423";"CGS-079"
"S4 424";"CGS-009"
"S4 425";"CGS-062"
"S4 426";"CGS-063"
"S4 427";"CGS-064"
"S4 428";"CGS-072"
"S4 429";"CGS-106"
"S4 430";"CGS-105"
"S4 431";"CGS-075"
"S4 432";"CGS-074"
"S5 506";"CGS-048"
"S5 507";"CGS-024"
"S5 508";"CGS-047"
"S5 509";"CGS-026"
"S5 510";"CGS-135"
"S5 511";"CGS-039"
"S5 512";"CGS-040"
"S5 525";"CGS-023"
"S5 526";"CGS-076"
"S5 527";"CGS-022"
"S5 528";"CGS-020"
"S5 529";"CGS-018"
"S5 530";"CGS-021"
"S5 531";"CGS-133"
"S5 532";"CGS-104"
"S6 606";"CGS-070"
"S6 607";"CGS-132"
"S6 608";"CGS-007"
"S6 609";"CGS-041"
"S6 610";"CGS-071"
"S6 611";"CGS-051"
"S6 612";"CGS-134"
"S6 625";"CGS-127"
"S6 626";"CGS-025"
"S6 627";"CGS-128"
"S6 628";"CGS-130"
"S6 629";"CGS-131"
"S6 630";"CGS-129"
"S6 631";"CGS-037"
"S6 632";"CGS-038"
